Substitutional effects of regional carsharing offerings
…
```r
# Read newly registered cars for year 2020. Data available from 2006 on -> Panel!
new_cars <- readxl::read_excel("01_Data\\02_Bestand\\fz3_2021.xlsx", sheet = "FZ 3.1", skip = 8, na = c('.')) %>% 
  clean_names() %>% 
  select(plz_gemeinde, insgesamt_5, darunter_gewerbliche_halter) %>% 
  filter(str_detect(plz_gemeinde, pattern = "\\d{5}")) %>% 
  mutate(plz_gemeinde = str_remove(plz_gemeinde, pattern = "\\,.*")) %>% 
  rename(c("region" = "plz_gemeinde", "number_cars" = "insgesamt_5", "number_cars_commercial" = "darunter_gewerbliche_halter")) 
new_cars %>% 
  print(n=5)
```

```
## # A tibble: 10,791 x 3
##   region            number_cars number_cars_commercial
##   <chr>                   <dbl>                  <dbl>
## 1 70173  STUTTGART       308411                  80799
## 2 71134  AIDLINGEN         6176                    322
## 3 71155  ALTDORF           2945                    106
## 4 71032  BOEBLINGEN       31982                   5932
## 5 71149  BONDORF           3708                    190
## # ... with 10,786 more rows
```
…
